…
We can extract the selected features from all $100$ trained Lasso Cox models and create a frequency selection table:
```{r}
# get selected features from all trained learners in a list
sf_list = lapply(rr$learners, function(learner) {
  learner$graph_model$pipeops$surv.cv_glmnet$learner_model$selected_features()
})

# make frequency selection table
n = length(sf_list)
fs_res = sort(table(unlist(sf_list)), decreasing = TRUE)
times = as.vector(unname(fs_res))
tibble::tibble(feat_name = names(fs_res), times = times, freq = times/n)
```
```
# A tibble: 35 × 3
   feat_name times  freq
   <chr>     <int> <dbl>
 1 age         100  1   
 2 ethnicity   100  1   
 3 UBE2T        53  0.53
 4 ORC6L        48  0.48
 5 ANLN         42  0.42
 6 ERBB2        40  0.4 
 7 GPR160       35  0.35
 8 FGFR4        33  0.33
 9 CEP55        32  0.32
10 UBE2C        30  0.3 
# … with 25 more rows
```
…
