Survive with Omics - Supplemental information for ‘Tutorial on survival modeling with applications to omics data’
…
We can extract the selected features from all \(100\) trained Lasso Cox models and create a frequency selection table:

# get selected features from all trained learners in a list
sf_list <- lapply(rr$learners, function(learner) {
  learner$selected_features()
})

# make frequency selection table
n <- length(sf_list)
fs_res <- sort(table(unlist(sf_list)), decreasing = TRUE)
times <- as.vector(unname(fs_res))
tibble::tibble(feat_name = names(fs_res), times = times, freq = times / n)

# A tibble: 35 × 3
   feat_name times  freq
   <chr>     <int> <dbl>
1 age         100  1
2 ethnicity   100  1
3 ANLN         43  0.43
4 BLVRA        41  0.41
5 BAG1         37  0.37
6 MIA          34  0.34
7 TYMS         30  0.3
8 KRT5         27  0.27
9 MMP11        27  0.27
10 BCL2         26  0.26
# ℹ 25 more rows
…
